Depth IterativDeepening(AlphaBeta) AspirationWindows(AlphaBeta) IterativDeepening(MiniMax)
1 0.001039 0.001149 0.000584
2 0.009037 0.005415 0.008604
3 0.135482 0.052966 0.141446
4 3.220257 0.617476 2.076146