map: map8_endgame(1609_~1740).map Timelimit: 50.0
Iterative Deepening with AlphaBeta
1 1305 34993 0,034993 1304
2 62855 1410776 1,410776 61549
3 2910978 50001177 50,001177 2907331
4 4472472 50000134 50,000134 4467546
5 4038382 50000274 50,000274 4033811
6 4412112 50000190 50,000190 4407235
7 4377445 50000115 50,000115 4372596
8 4377349 50000142 50,000142 4372501
9 4376550 50000208 50,000208 4371702
10 4378822 50001113 50,001113 4373972
Aspiration Windows with AlphaBeta
1 1129 61326 0,061326 1128
2 31536 809858 0,809858 30406
3 34921 743212 0,743212 31534
4 39434 699149 0,699149 32662
5 45075 711474 0,711474 33790
6 51844 776496 0,776496 34918
7 59741 774069 0,774069 36046
8 68766 785677 0,785677 37174
9 4694129 50000099 50,000099 4577582
10 4624555 50000168 50,000168 4509342
Iterative Deepening with Minimax
1 1129 15303 0,015303 1128
2 1280694 26149792 26,149792 1279564
3 3460158 50001246 50,001246 3457043
4 4737846 50000163 50,000163 4733575
5 4576843 50000224 50,000224 4572717
6 3155728 50000160 50,000160 3152890
7 4174551 49999908 49,999908 4170788
8 4652412 50000251 50,000251 4648218
9 4551355 50000096 50,000096 4547252
10 4253553 50000322 50,000322 4249718
