Depth IterativDeepening(AlphaBeta) AspirationWindows(AlphaBeta) IterativeDeepening(MiniMax)
1 5 5 5
2 14 14 18
3 35 27 55
4 68 44 136
5 138 65 338
6 245 100 747
7 441 148 1583
8 726 227 3027
9 1186 330 5132


